ISO-10303-21;
HEADER;
FILE_DESCRIPTION(('STEP AP214'),'1');
FILE_NAME('b32-1010.stp','2017-04-13T09:52:49',('TraceParts'),('TraceParts S.A.'),'Spatial InterOp 3D',' ',' ');
FILE_SCHEMA(('automotive_design'));
ENDSEC;
DATA;
#1=MECHANICAL_DESIGN_GEOMETRIC_PRESENTATION_REPRESENTATION(' ',(#10,#11,#12,#13,#14,#15,#16,#17,#18,#19,#20,#21,#22,#23,#24,#25,#26,#27,#28,#29,#30,#31,#32,#33,#34,#35),#6);
#2=PRODUCT_DEFINITION_CONTEXT('',#36,'design');
#3=APPLICATION_PROTOCOL_DEFINITION('INTERNATIONAL STANDARD','automotive_design',1994,#36);
#4=PRODUCT_CATEGORY_RELATIONSHIP('NONE','NONE',#37,#38);
#5=SHAPE_DEFINITION_REPRESENTATION(#39,#40);
#6= (GEOMETRIC_REPRESENTATION_CONTEXT(3)GLOBAL_UNCERTAINTY_ASSIGNED_CONTEXT((#43))GLOBAL_UNIT_ASSIGNED_CONTEXT((#45,#46,#47))REPRESENTATION_CONTEXT('NONE','WORKSPACE'));
#10=STYLED_ITEM('',(#49),#50);
#11=STYLED_ITEM('',(#51),#52);
#12=STYLED_ITEM('',(#53),#54);
#13=STYLED_ITEM('',(#55),#56);
#14=STYLED_ITEM('',(#57),#58);
#15=STYLED_ITEM('',(#59),#60);
#16=STYLED_ITEM('',(#61),#62);
#17=STYLED_ITEM('',(#63),#64);
#18=STYLED_ITEM('',(#65),#66);
#19=STYLED_ITEM('',(#67),#68);
#20=STYLED_ITEM('',(#69),#70);
#21=STYLED_ITEM('',(#71),#72);
#22=STYLED_ITEM('',(#73),#74);
#23=STYLED_ITEM('',(#75),#76);
#24=STYLED_ITEM('',(#77),#78);
#25=STYLED_ITEM('',(#79),#80);
#26=STYLED_ITEM('',(#81),#82);
#27=STYLED_ITEM('',(#83),#84);
#28=STYLED_ITEM('',(#85),#86);
#29=STYLED_ITEM('',(#87),#88);
#30=STYLED_ITEM('',(#89),#90);
#31=STYLED_ITEM('',(#91),#92);
#32=STYLED_ITEM('',(#93),#94);
#33=STYLED_ITEM('',(#95),#96);
#34=STYLED_ITEM('',(#97),#98);
#35=STYLED_ITEM('',(#99),#100);
#36=APPLICATION_CONTEXT(' ');
#37=PRODUCT_CATEGORY('part','NONE');
#38=PRODUCT_RELATED_PRODUCT_CATEGORY('detail',' ',(#101));
#39=PRODUCT_DEFINITION_SHAPE('NONE','NONE',#102);
#40=ADVANCED_BREP_SHAPE_REPRESENTATION('b32-1010',(#103,#104),#6);
#43=UNCERTAINTY_MEASURE_WITH_UNIT(LENGTH_MEASURE(1.0E-006),#45,'','');
#45= (CONVERSION_BASED_UNIT('MILLIMETRE',#107)LENGTH_UNIT()NAMED_UNIT(#110));
#46= (NAMED_UNIT(#112)PLANE_ANGLE_UNIT()SI_UNIT($,.RADIAN.));
#47= (NAMED_UNIT(#112)SOLID_ANGLE_UNIT()SI_UNIT($,.STERADIAN.));
#49=PRESENTATION_STYLE_ASSIGNMENT((#118));
#50=ADVANCED_FACE('',(#119),#120,.T.);
#51=PRESENTATION_STYLE_ASSIGNMENT((#121));
#52=ADVANCED_FACE('',(#122),#123,.T.);
#53=PRESENTATION_STYLE_ASSIGNMENT((#124));
#54=ADVANCED_FACE('',(#125),#126,.T.);
#55=PRESENTATION_STYLE_ASSIGNMENT((#127));
#56=ADVANCED_FACE('',(#128),#129,.T.);
#57=PRESENTATION_STYLE_ASSIGNMENT((#130));
#58=ADVANCED_FACE('',(#131),#132,.T.);
#59=PRESENTATION_STYLE_ASSIGNMENT((#133));
#60=ADVANCED_FACE('',(#134),#135,.T.);
#61=PRESENTATION_STYLE_ASSIGNMENT((#136));
#62=ADVANCED_FACE('',(#137),#138,.T.);
#63=PRESENTATION_STYLE_ASSIGNMENT((#139));
#64=ADVANCED_FACE('',(#140),#141,.F.);
#65=PRESENTATION_STYLE_ASSIGNMENT((#142));
#66=ADVANCED_FACE('',(#143),#144,.F.);
#67=PRESENTATION_STYLE_ASSIGNMENT((#145));
#68=ADVANCED_FACE('',(#146),#147,.F.);
#69=PRESENTATION_STYLE_ASSIGNMENT((#148));
#70=ADVANCED_FACE('',(#149),#150,.T.);
#71=PRESENTATION_STYLE_ASSIGNMENT((#151));
#72=ADVANCED_FACE('',(#152),#153,.T.);
#73=PRESENTATION_STYLE_ASSIGNMENT((#154));
#74=ADVANCED_FACE('',(#155),#156,.T.);
#75=PRESENTATION_STYLE_ASSIGNMENT((#157));
#76=ADVANCED_FACE('',(#158),#159,.T.);
#77=PRESENTATION_STYLE_ASSIGNMENT((#160));
#78=ADVANCED_FACE('',(#161),#162,.T.);
#79=PRESENTATION_STYLE_ASSIGNMENT((#163));
#80=ADVANCED_FACE('',(#164),#165,.T.);
#81=PRESENTATION_STYLE_ASSIGNMENT((#166));
#82=ADVANCED_FACE('',(#167),#168,.T.);
#83=PRESENTATION_STYLE_ASSIGNMENT((#169));
#84=ADVANCED_FACE('',(#170),#171,.T.);
#85=PRESENTATION_STYLE_ASSIGNMENT((#172));
#86=ADVANCED_FACE('',(#173),#174,.T.);
#87=PRESENTATION_STYLE_ASSIGNMENT((#175));
#88=ADVANCED_FACE('',(#176),#177,.T.);
#89=PRESENTATION_STYLE_ASSIGNMENT((#178));
#90=ADVANCED_FACE('',(#179),#180,.T.);
#91=PRESENTATION_STYLE_ASSIGNMENT((#181));
#92=ADVANCED_FACE('',(#182),#183,.T.);
#93=PRESENTATION_STYLE_ASSIGNMENT((#184));
#94=ADVANCED_FACE('',(#185),#186,.T.);
#95=PRESENTATION_STYLE_ASSIGNMENT((#187));
#96=ADVANCED_FACE('',(#188),#189,.T.);
#97=PRESENTATION_STYLE_ASSIGNMENT((#190));
#98=ADVANCED_FACE('',(#191),#192,.T.);
#99=PRESENTATION_STYLE_ASSIGNMENT((#193));
#100=ADVANCED_FACE('',(#194),#195,.T.);
#101=PRODUCT('b32-1010','b32-1010','PART-b32-1010-DESC',(#196));
#102=PRODUCT_DEFINITION('NONE','NONE',#197,#2);
#103=MANIFOLD_SOLID_BREP('b32-1010',#198);
#104=AXIS2_PLACEMENT_3D('',#199,#200,#201);
#107=LENGTH_MEASURE_WITH_UNIT(LENGTH_MEASURE(1.0),#202);
#110=DIMENSIONAL_EXPONENTS(1.0,0.0,0.0,0.0,0.0,0.0,0.0);
#112=DIMENSIONAL_EXPONENTS(0.0,0.0,0.0,0.0,0.0,0.0,0.0);
#118=SURFACE_STYLE_USAGE(.BOTH.,#203);
#119=FACE_OUTER_BOUND('',#204,.T.);
#120=PLANE('',#205);
#121=SURFACE_STYLE_USAGE(.BOTH.,#206);
#122=FACE_OUTER_BOUND('',#207,.T.);
#123=PLANE('',#208);
#124=SURFACE_STYLE_USAGE(.BOTH.,#209);
#125=FACE_OUTER_BOUND('',#210,.T.);
#126=PLANE('',#211);
#127=SURFACE_STYLE_USAGE(.BOTH.,#212);
#128=FACE_OUTER_BOUND('',#213,.T.);
#129=PLANE('',#214);
#130=SURFACE_STYLE_USAGE(.BOTH.,#215);
#131=FACE_OUTER_BOUND('',#216,.T.);
#132=PLANE('',#217);
#133=SURFACE_STYLE_USAGE(.BOTH.,#218);
#134=FACE_OUTER_BOUND('',#219,.T.);
#135=PLANE('',#220);
#136=SURFACE_STYLE_USAGE(.BOTH.,#221);
#137=FACE_OUTER_BOUND('',#222,.T.);
#138=PLANE('',#223);
#139=SURFACE_STYLE_USAGE(.BOTH.,#224);
#140=FACE_OUTER_BOUND('',#225,.T.);
#141=PLANE('',#226);
#142=SURFACE_STYLE_USAGE(.BOTH.,#227);
#143=FACE_OUTER_BOUND('',#228,.T.);
#144=PLANE('',#229);
#145=SURFACE_STYLE_USAGE(.BOTH.,#230);
#146=FACE_OUTER_BOUND('',#231,.T.);
#147=PLANE('',#232);
#148=SURFACE_STYLE_USAGE(.BOTH.,#233);
#149=FACE_OUTER_BOUND('',#234,.T.);
#150=PLANE('',#235);
#151=SURFACE_STYLE_USAGE(.BOTH.,#236);
#152=FACE_OUTER_BOUND('',#237,.T.);
#153=PLANE('',#238);
#154=SURFACE_STYLE_USAGE(.BOTH.,#239);
#155=FACE_OUTER_BOUND('',#240,.T.);
#156=PLANE('',#241);
#157=SURFACE_STYLE_USAGE(.BOTH.,#242);
#158=FACE_OUTER_BOUND('',#243,.T.);
#159=PLANE('',#244);
#160=SURFACE_STYLE_USAGE(.BOTH.,#245);
#161=FACE_OUTER_BOUND('',#246,.T.);
#162=CYLINDRICAL_SURFACE('',#247,0.2);
#163=SURFACE_STYLE_USAGE(.BOTH.,#248);
#164=FACE_OUTER_BOUND('',#249,.T.);
#165=CYLINDRICAL_SURFACE('',#250,0.5);
#166=SURFACE_STYLE_USAGE(.BOTH.,#251);
#167=FACE_OUTER_BOUND('',#252,.T.);
#168=CYLINDRICAL_SURFACE('',#253,0.2);
#169=SURFACE_STYLE_USAGE(.BOTH.,#254);
#170=FACE_OUTER_BOUND('',#255,.T.);
#171=PLANE('',#256);
#172=SURFACE_STYLE_USAGE(.BOTH.,#257);
#173=FACE_OUTER_BOUND('',#258,.T.);
#174=PLANE('',#259);
#175=SURFACE_STYLE_USAGE(.BOTH.,#260);
#176=FACE_OUTER_BOUND('',#261,.T.);
#177=CYLINDRICAL_SURFACE('',#262,0.5);
#178=SURFACE_STYLE_USAGE(.BOTH.,#263);
#179=FACE_OUTER_BOUND('',#264,.T.);
#180=CYLINDRICAL_SURFACE('',#265,0.2);
#181=SURFACE_STYLE_USAGE(.BOTH.,#266);
#182=FACE_OUTER_BOUND('',#267,.T.);
#183=CYLINDRICAL_SURFACE('',#268,0.5);
#184=SURFACE_STYLE_USAGE(.BOTH.,#269);
#185=FACE_OUTER_BOUND('',#270,.T.);
#186=CYLINDRICAL_SURFACE('',#271,0.2);
#187=SURFACE_STYLE_USAGE(.BOTH.,#272);
#188=FACE_OUTER_BOUND('',#273,.T.);
#189=CYLINDRICAL_SURFACE('',#274,0.5);
#190=SURFACE_STYLE_USAGE(.BOTH.,#275);
#191=FACE_OUTER_BOUND('',#276,.T.);
#192=PLANE('',#277);
#193=SURFACE_STYLE_USAGE(.BOTH.,#278);
#194=FACE_OUTER_BOUND('',#279,.T.);
#195=PLANE('',#280);
#196=PRODUCT_CONTEXT('',#36,'mechanical');
#197=PRODUCT_DEFINITION_FORMATION_WITH_SPECIFIED_SOURCE(' ','NONE',#101,.NOT_KNOWN.);
#198=CLOSED_SHELL('',(#50,#52,#54,#56,#58,#60,#62,#64,#66,#68,#70,#72,#74,#76,#78,#80,#82,#84,#86,#88,#90,#92,#94,#96,#98,#100));
#199=CARTESIAN_POINT('',(0.0,0.0,0.0));
#200=DIRECTION('',(0.0,0.0,1.0));
#201=DIRECTION('',(1.0,0.0,0.0));
#202= (NAMED_UNIT(#110)LENGTH_UNIT()SI_UNIT(.MILLI.,.METRE.));
#203=SURFACE_SIDE_STYLE('',(#282));
#204=EDGE_LOOP('',(#283,#284,#285,#286));
#205=AXIS2_PLACEMENT_3D('',#287,#288,#289);
#206=SURFACE_SIDE_STYLE('',(#290));
#207=EDGE_LOOP('',(#291,#292,#293,#294));
#208=AXIS2_PLACEMENT_3D('',#295,#296,#297);
#209=SURFACE_SIDE_STYLE('',(#298));
#210=EDGE_LOOP('',(#299,#300,#301,#302));
#211=AXIS2_PLACEMENT_3D('',#303,#304,#305);
#212=SURFACE_SIDE_STYLE('',(#306));
#213=EDGE_LOOP('',(#307,#308,#309,#310));
#214=AXIS2_PLACEMENT_3D('',#311,#312,#313);
#215=SURFACE_SIDE_STYLE('',(#314));
#216=EDGE_LOOP('',(#315,#316,#317,#318));
#217=AXIS2_PLACEMENT_3D('',#319,#320,#321);
#218=SURFACE_SIDE_STYLE('',(#322));
#219=EDGE_LOOP('',(#323,#324,#325,#326));
#220=AXIS2_PLACEMENT_3D('',#327,#328,#329);
#221=SURFACE_SIDE_STYLE('',(#330));
#222=EDGE_LOOP('',(#331,#332,#333,#334,#335,#336,#337,#338));
#223=AXIS2_PLACEMENT_3D('',#339,#340,#341);
#224=SURFACE_SIDE_STYLE('',(#342));
#225=EDGE_LOOP('',(#343,#344,#345,#346,#347,#348,#349,#350));
#226=AXIS2_PLACEMENT_3D('',#351,#352,#353);
#227=SURFACE_SIDE_STYLE('',(#354));
#228=EDGE_LOOP('',(#355,#356,#357,#358,#359,#360,#361,#362,#363,#364));
#229=AXIS2_PLACEMENT_3D('',#365,#366,#367);
#230=SURFACE_SIDE_STYLE('',(#368));
#231=EDGE_LOOP('',(#369,#370,#371,#372,#373,#374,#375,#376,#377,#378));
#232=AXIS2_PLACEMENT_3D('',#379,#380,#381);
#233=SURFACE_SIDE_STYLE('',(#382));
#234=EDGE_LOOP('',(#383,#384,#385,#386));
#235=AXIS2_PLACEMENT_3D('',#387,#388,#389);
#236=SURFACE_SIDE_STYLE('',(#390));
#237=EDGE_LOOP('',(#391,#392,#393,#394,#395,#396,#397,#398));
#238=AXIS2_PLACEMENT_3D('',#399,#400,#401);
#239=SURFACE_SIDE_STYLE('',(#402));
#240=EDGE_LOOP('',(#403,#404,#405,#406));
#241=AXIS2_PLACEMENT_3D('',#407,#408,#409);
#242=SURFACE_SIDE_STYLE('',(#410));
#243=EDGE_LOOP('',(#411,#412,#413,#414));
#244=AXIS2_PLACEMENT_3D('',#415,#416,#417);
#245=SURFACE_SIDE_STYLE('',(#418));
#246=EDGE_LOOP('',(#419,#420,#421,#422,#423,#424));
#247=AXIS2_PLACEMENT_3D('',#425,#426,#427);
#248=SURFACE_SIDE_STYLE('',(#428));
#249=EDGE_LOOP('',(#429,#430,#431,#432,#433));
#250=AXIS2_PLACEMENT_3D('',#434,#435,#436);
#251=SURFACE_SIDE_STYLE('',(#437));
#252=EDGE_LOOP('',(#438,#439,#440,#441,#442,#443));
#253=AXIS2_PLACEMENT_3D('',#444,#445,#446);
#254=SURFACE_SIDE_STYLE('',(#447));
#255=EDGE_LOOP('',(#448,#449,#450,#451));
#256=AXIS2_PLACEMENT_3D('',#452,#453,#454);
#257=SURFACE_SIDE_STYLE('',(#455));
#258=EDGE_LOOP('',(#456,#457,#458,#459));
#259=AXIS2_PLACEMENT_3D('',#460,#461,#462);
#260=SURFACE_SIDE_STYLE('',(#463));
#261=EDGE_LOOP('',(#464,#465,#466,#467,#468));
#262=AXIS2_PLACEMENT_3D('',#469,#470,#471);
#263=SURFACE_SIDE_STYLE('',(#472));
#264=EDGE_LOOP('',(#473,#474,#475,#476,#477,#478));
#265=AXIS2_PLACEMENT_3D('',#479,#480,#481);
#266=SURFACE_SIDE_STYLE('',(#482));
#267=EDGE_LOOP('',(#483,#484,#485,#486,#487));
#268=AXIS2_PLACEMENT_3D('',#488,#489,#490);
#269=SURFACE_SIDE_STYLE('',(#491));
#270=EDGE_LOOP('',(#492,#493,#494,#495,#496,#497));
#271=AXIS2_PLACEMENT_3D('',#498,#499,#500);
#272=SURFACE_SIDE_STYLE('',(#501));
#273=EDGE_LOOP('',(#502,#503,#504,#505,#506));
#274=AXIS2_PLACEMENT_3D('',#507,#508,#509);
#275=SURFACE_SIDE_STYLE('',(#510));
#276=EDGE_LOOP('',(#511,#512,#513,#514));
#277=AXIS2_PLACEMENT_3D('',#515,#516,#517);
#278=SURFACE_SIDE_STYLE('',(#518));
#279=EDGE_LOOP('',(#519,#520,#521,#522,#523,#524,#525,#526));
#280=AXIS2_PLACEMENT_3D('',#527,#528,#529);
#282=SURFACE_STYLE_FILL_AREA(#530);
#283=ORIENTED_EDGE('',*,*,#531,.F.);
#284=ORIENTED_EDGE('',*,*,#532,.F.);
#285=ORIENTED_EDGE('',*,*,#533,.F.);
#286=ORIENTED_EDGE('',*,*,#534,.T.);
#287=CARTESIAN_POINT('',(0.9,0.5,0.0));
#288=DIRECTION('',(-1.0,0.0,0.0));
#289=DIRECTION('',(0.0,0.0,1.0));
#290=SURFACE_STYLE_FILL_AREA(#535);
#291=ORIENTED_EDGE('',*,*,#536,.F.);
#292=ORIENTED_EDGE('',*,*,#537,.T.);
#293=ORIENTED_EDGE('',*,*,#538,.F.);
#294=ORIENTED_EDGE('',*,*,#539,.F.);
#295=CARTESIAN_POINT('',(0.9,0.5,0.0));
#296=DIRECTION('',(-1.0,0.0,0.0));
#297=DIRECTION('',(0.0,0.0,1.0));
#298=SURFACE_STYLE_FILL_AREA(#540);
#299=ORIENTED_EDGE('',*,*,#541,.F.);
#300=ORIENTED_EDGE('',*,*,#542,.F.);
#301=ORIENTED_EDGE('',*,*,#543,.F.);
#302=ORIENTED_EDGE('',*,*,#544,.F.);
#303=CARTESIAN_POINT('',(-0.9,0.5,0.0));
#304=DIRECTION('',(1.0,0.0,0.0));
#305=DIRECTION('',(0.0,0.0,-1.0));
#306=SURFACE_STYLE_FILL_AREA(#545);
#307=ORIENTED_EDGE('',*,*,#546,.F.);
#308=ORIENTED_EDGE('',*,*,#534,.F.);
#309=ORIENTED_EDGE('',*,*,#547,.F.);
#310=ORIENTED_EDGE('',*,*,#542,.T.);
#311=CARTESIAN_POINT('',(0.0,2.0,0.0));
#312=DIRECTION('',(0.0,-1.0,0.0));
#313=DIRECTION('',(0.0,0.0,-1.0));
#314=SURFACE_STYLE_FILL_AREA(#548);
#315=ORIENTED_EDGE('',*,*,#549,.F.);
#316=ORIENTED_EDGE('',*,*,#550,.F.);
#317=ORIENTED_EDGE('',*,*,#551,.F.);
#318=ORIENTED_EDGE('',*,*,#552,.F.);
#319=CARTESIAN_POINT('',(-0.9,0.5,0.0));
#320=DIRECTION('',(1.0,0.0,0.0));
#321=DIRECTION('',(0.0,0.0,-1.0));
#322=SURFACE_STYLE_FILL_AREA(#553);
#323=ORIENTED_EDGE('',*,*,#554,.F.);
#324=ORIENTED_EDGE('',*,*,#552,.T.);
#325=ORIENTED_EDGE('',*,*,#555,.F.);
#326=ORIENTED_EDGE('',*,*,#537,.F.);
#327=CARTESIAN_POINT('',(0.0,2.0,0.0));
#328=DIRECTION('',(0.0,-1.0,0.0));
#329=DIRECTION('',(0.0,0.0,-1.0));
#330=SURFACE_STYLE_FILL_AREA(#556);
#331=ORIENTED_EDGE('',*,*,#538,.T.);
#332=ORIENTED_EDGE('',*,*,#555,.T.);
#333=ORIENTED_EDGE('',*,*,#551,.T.);
#334=ORIENTED_EDGE('',*,*,#557,.F.);
#335=ORIENTED_EDGE('',*,*,#558,.T.);
#336=ORIENTED_EDGE('',*,*,#559,.F.);
#337=ORIENTED_EDGE('',*,*,#560,.F.);
#338=ORIENTED_EDGE('',*,*,#561,.F.);
#339=CARTESIAN_POINT('',(0.0,0.0,-2.0));
#340=DIRECTION('',(0.0,6.12303176911189E-017,-1.0));
#341=DIRECTION('',(-1.0,0.0,0.0));
#342=SURFACE_STYLE_FILL_AREA(#562);
#343=ORIENTED_EDGE('',*,*,#531,.T.);
#344=ORIENTED_EDGE('',*,*,#546,.T.);
#345=ORIENTED_EDGE('',*,*,#541,.T.);
#346=ORIENTED_EDGE('',*,*,#563,.F.);
#347=ORIENTED_EDGE('',*,*,#564,.F.);
#348=ORIENTED_EDGE('',*,*,#565,.F.);
#349=ORIENTED_EDGE('',*,*,#566,.F.);
#350=ORIENTED_EDGE('',*,*,#567,.F.);
#351=CARTESIAN_POINT('',(0.0,0.9,1.25));
#352=DIRECTION('',(0.0,0.0,1.0));
#353=DIRECTION('',(1.0,0.0,0.0));
#354=SURFACE_STYLE_FILL_AREA(#568);
#355=ORIENTED_EDGE('',*,*,#550,.T.);
#356=ORIENTED_EDGE('',*,*,#569,.T.);
#357=ORIENTED_EDGE('',*,*,#570,.T.);
#358=ORIENTED_EDGE('',*,*,#563,.T.);
#359=ORIENTED_EDGE('',*,*,#544,.T.);
#360=ORIENTED_EDGE('',*,*,#571,.F.);
#361=ORIENTED_EDGE('',*,*,#572,.F.);
#362=ORIENTED_EDGE('',*,*,#573,.F.);
#363=ORIENTED_EDGE('',*,*,#574,.F.);
#364=ORIENTED_EDGE('',*,*,#557,.T.);
#365=CARTESIAN_POINT('',(0.0,-1.22460635382238E-016,-2.22044604925031E-016));
#366=DIRECTION('',(-0.0,1.0,6.12303176911189E-017));
#367=DIRECTION('',(1.0,0.0,0.0));
#368=SURFACE_STYLE_FILL_AREA(#575);
#369=ORIENTED_EDGE('',*,*,#539,.T.);
#370=ORIENTED_EDGE('',*,*,#561,.T.);
#371=ORIENTED_EDGE('',*,*,#576,.F.);
#372=ORIENTED_EDGE('',*,*,#577,.F.);
#373=ORIENTED_EDGE('',*,*,#578,.F.);
#374=ORIENTED_EDGE('',*,*,#579,.F.);
#375=ORIENTED_EDGE('',*,*,#532,.T.);
#376=ORIENTED_EDGE('',*,*,#567,.T.);
#377=ORIENTED_EDGE('',*,*,#580,.T.);
#378=ORIENTED_EDGE('',*,*,#581,.T.);
#379=CARTESIAN_POINT('',(0.0,-1.22460635382238E-016,-2.22044604925031E-016));
#380=DIRECTION('',(-0.0,1.0,6.12303176911189E-017));
#381=DIRECTION('',(1.0,0.0,0.0));
#382=SURFACE_STYLE_FILL_AREA(#582);
#383=ORIENTED_EDGE('',*,*,#580,.F.);
#384=ORIENTED_EDGE('',*,*,#566,.T.);
#385=ORIENTED_EDGE('',*,*,#583,.T.);
#386=ORIENTED_EDGE('',*,*,#584,.T.);
#387=CARTESIAN_POINT('',(1.25,0.9,0.0));
#388=DIRECTION('',(-1.0,0.0,0.0));
#389=DIRECTION('',(0.0,0.0,1.0));
#390=SURFACE_STYLE_FILL_AREA(#585);
#391=ORIENTED_EDGE('',*,*,#536,.T.);
#392=ORIENTED_EDGE('',*,*,#581,.F.);
#393=ORIENTED_EDGE('',*,*,#584,.F.);
#394=ORIENTED_EDGE('',*,*,#586,.F.);
#395=ORIENTED_EDGE('',*,*,#587,.F.);
#396=ORIENTED_EDGE('',*,*,#569,.F.);
#397=ORIENTED_EDGE('',*,*,#549,.T.);
#398=ORIENTED_EDGE('',*,*,#554,.T.);
#399=CARTESIAN_POINT('',(0.0,0.9,-1.25));
#400=DIRECTION('',(0.0,0.0,1.0));
#401=DIRECTION('',(1.0,0.0,0.0));
#402=SURFACE_STYLE_FILL_AREA(#588);
#403=ORIENTED_EDGE('',*,*,#570,.F.);
#404=ORIENTED_EDGE('',*,*,#587,.T.);
#405=ORIENTED_EDGE('',*,*,#589,.F.);
#406=ORIENTED_EDGE('',*,*,#564,.T.);
#407=CARTESIAN_POINT('',(-1.25,0.9,0.0));
#408=DIRECTION('',(1.0,0.0,0.0));
#409=DIRECTION('',(0.0,0.0,-1.0));
#410=SURFACE_STYLE_FILL_AREA(#590);
#411=ORIENTED_EDGE('',*,*,#583,.F.);
#412=ORIENTED_EDGE('',*,*,#565,.T.);
#413=ORIENTED_EDGE('',*,*,#589,.T.);
#414=ORIENTED_EDGE('',*,*,#586,.T.);
#415=CARTESIAN_POINT('',(0.0,2.8,0.0));
#416=DIRECTION('',(0.0,-1.0,0.0));
#417=DIRECTION('',(0.0,0.0,-1.0));
#418=SURFACE_STYLE_FILL_AREA(#591);
#419=ORIENTED_EDGE('',*,*,#592,.F.);
#420=ORIENTED_EDGE('',*,*,#593,.T.);
#421=ORIENTED_EDGE('',*,*,#594,.F.);
#422=ORIENTED_EDGE('',*,*,#595,.F.);
#423=ORIENTED_EDGE('',*,*,#596,.F.);
#424=ORIENTED_EDGE('',*,*,#597,.F.);
#425=CARTESIAN_POINT('',(3.0,5.3,1.8));
#426=DIRECTION('',(-1.0,0.0,-1.83690953073357E-016));
#427=DIRECTION('',(-1.83690953073357E-016,0.0,1.0));
#428=SURFACE_STYLE_FILL_AREA(#598);
#429=ORIENTED_EDGE('',*,*,#592,.T.);
#430=ORIENTED_EDGE('',*,*,#599,.T.);
#431=ORIENTED_EDGE('',*,*,#600,.F.);
#432=ORIENTED_EDGE('',*,*,#572,.T.);
#433=ORIENTED_EDGE('',*,*,#601,.T.);
#434=CARTESIAN_POINT('',(-1.5,-2.14306111918916E-016,1.5));
#435=DIRECTION('',(-0.0,1.0,6.12303176911189E-017));
#436=DIRECTION('',(1.0,0.0,0.0));
#437=SURFACE_STYLE_FILL_AREA(#602);
#438=ORIENTED_EDGE('',*,*,#597,.T.);
#439=ORIENTED_EDGE('',*,*,#603,.F.);
#440=ORIENTED_EDGE('',*,*,#604,.F.);
#441=ORIENTED_EDGE('',*,*,#605,.F.);
#442=ORIENTED_EDGE('',*,*,#606,.T.);
#443=ORIENTED_EDGE('',*,*,#599,.F.);
#444=CARTESIAN_POINT('',(-1.8,5.3,3.0));
#445=DIRECTION('',(1.22460635382238E-016,0.0,-1.0));
#446=DIRECTION('',(-1.0,0.0,-1.22460635382238E-016));
#447=SURFACE_STYLE_FILL_AREA(#607);
#448=ORIENTED_EDGE('',*,*,#596,.T.);
#449=ORIENTED_EDGE('',*,*,#608,.T.);
#450=ORIENTED_EDGE('',*,*,#609,.T.);
#451=ORIENTED_EDGE('',*,*,#603,.T.);
#452=CARTESIAN_POINT('',(0.0,5.5,0.0));
#453=DIRECTION('',(-0.0,1.0,6.12303176911189E-017));
#454=DIRECTION('',(1.0,0.0,0.0));
#455=SURFACE_STYLE_FILL_AREA(#610);
#456=ORIENTED_EDGE('',*,*,#606,.F.);
#457=ORIENTED_EDGE('',*,*,#611,.F.);
#458=ORIENTED_EDGE('',*,*,#573,.T.);
#459=ORIENTED_EDGE('',*,*,#600,.T.);
#460=CARTESIAN_POINT('',(-2.0,-1.22460635382238E-016,0.0));
#461=DIRECTION('',(-1.0,-3.74915180455534E-033,6.12303176911189E-017));
#462=DIRECTION('',(6.12303176911189E-017,-6.12303176911189E-017,1.0));
#463=SURFACE_STYLE_FILL_AREA(#612);
#464=ORIENTED_EDGE('',*,*,#605,.T.);
#465=ORIENTED_EDGE('',*,*,#613,.T.);
#466=ORIENTED_EDGE('',*,*,#558,.F.);
#467=ORIENTED_EDGE('',*,*,#574,.T.);
#468=ORIENTED_EDGE('',*,*,#611,.T.);
#469=CARTESIAN_POINT('',(-1.5,-3.06151588455594E-017,-1.5));
#470=DIRECTION('',(-0.0,1.0,6.12303176911189E-017));
#471=DIRECTION('',(1.0,0.0,0.0));
#472=SURFACE_STYLE_FILL_AREA(#614);
#473=ORIENTED_EDGE('',*,*,#604,.T.);
#474=ORIENTED_EDGE('',*,*,#609,.F.);
#475=ORIENTED_EDGE('',*,*,#615,.F.);
#476=ORIENTED_EDGE('',*,*,#616,.F.);
#477=ORIENTED_EDGE('',*,*,#559,.T.);
#478=ORIENTED_EDGE('',*,*,#613,.F.);
#479=CARTESIAN_POINT('',(-3.0,5.3,-1.8));
#480=DIRECTION('',(1.0,0.0,6.12303176911189E-017));
#481=DIRECTION('',(6.12303176911189E-017,0.0,-1.0));
#482=SURFACE_STYLE_FILL_AREA(#617);
#483=ORIENTED_EDGE('',*,*,#616,.T.);
#484=ORIENTED_EDGE('',*,*,#618,.T.);
#485=ORIENTED_EDGE('',*,*,#619,.F.);
#486=ORIENTED_EDGE('',*,*,#576,.T.);
#487=ORIENTED_EDGE('',*,*,#560,.T.);
#488=CARTESIAN_POINT('',(1.5,-3.06151588455594E-017,-1.5));
#489=DIRECTION('',(-0.0,1.0,6.12303176911189E-017));
#490=DIRECTION('',(1.0,0.0,0.0));
#491=SURFACE_STYLE_FILL_AREA(#620);
#492=ORIENTED_EDGE('',*,*,#595,.T.);
#493=ORIENTED_EDGE('',*,*,#621,.F.);
#494=ORIENTED_EDGE('',*,*,#622,.T.);
#495=ORIENTED_EDGE('',*,*,#618,.F.);
#496=ORIENTED_EDGE('',*,*,#615,.T.);
#497=ORIENTED_EDGE('',*,*,#608,.F.);
#498=CARTESIAN_POINT('',(1.8,5.3,-3.0));
#499=DIRECTION('',(0.0,0.0,1.0));
#500=DIRECTION('',(1.0,0.0,0.0));
#501=SURFACE_STYLE_FILL_AREA(#623);
#502=ORIENTED_EDGE('',*,*,#594,.T.);
#503=ORIENTED_EDGE('',*,*,#624,.F.);
#504=ORIENTED_EDGE('',*,*,#578,.T.);
#505=ORIENTED_EDGE('',*,*,#625,.T.);
#506=ORIENTED_EDGE('',*,*,#621,.T.);
#507=CARTESIAN_POINT('',(1.5,-2.14306111918916E-016,1.5));
#508=DIRECTION('',(-0.0,1.0,6.12303176911189E-017));
#509=DIRECTION('',(1.0,0.0,0.0));
#510=SURFACE_STYLE_FILL_AREA(#626);
#511=ORIENTED_EDGE('',*,*,#622,.F.);
#512=ORIENTED_EDGE('',*,*,#625,.F.);
#513=ORIENTED_EDGE('',*,*,#577,.T.);
#514=ORIENTED_EDGE('',*,*,#619,.T.);
#515=CARTESIAN_POINT('',(2.0,-1.22460635382238E-016,0.0));
#516=DIRECTION('',(1.0,0.0,0.0));
#517=DIRECTION('',(0.0,6.12303176911189E-017,-1.0));
#518=SURFACE_STYLE_FILL_AREA(#627);
#519=ORIENTED_EDGE('',*,*,#533,.T.);
#520=ORIENTED_EDGE('',*,*,#579,.T.);
#521=ORIENTED_EDGE('',*,*,#624,.T.);
#522=ORIENTED_EDGE('',*,*,#593,.F.);
#523=ORIENTED_EDGE('',*,*,#601,.F.);
#524=ORIENTED_EDGE('',*,*,#571,.T.);
#525=ORIENTED_EDGE('',*,*,#543,.T.);
#526=ORIENTED_EDGE('',*,*,#547,.T.);
#527=CARTESIAN_POINT('',(0.0,-2.44921270764475E-016,2.0));
#528=DIRECTION('',(0.0,-6.12303176911189E-017,1.0));
#529=DIRECTION('',(1.0,0.0,0.0));
#530=FILL_AREA_STYLE('',(#628));
#531=EDGE_CURVE('',#629,#630,#631,.T.);
#532=EDGE_CURVE('',#632,#629,#633,.T.);
#533=EDGE_CURVE('',#634,#632,#635,.T.);
#534=EDGE_CURVE('',#634,#630,#636,.T.);
#535=FILL_AREA_STYLE('',(#637));
#536=EDGE_CURVE('',#638,#639,#640,.T.);
#537=EDGE_CURVE('',#638,#641,#642,.T.);
#538=EDGE_CURVE('',#643,#641,#644,.T.);
#539=EDGE_CURVE('',#639,#643,#645,.T.);
#540=FILL_AREA_STYLE('',(#646));
#541=EDGE_CURVE('',#647,#648,#649,.T.);
#542=EDGE_CURVE('',#650,#647,#651,.T.);
#543=EDGE_CURVE('',#652,#650,#653,.T.);
#544=EDGE_CURVE('',#648,#652,#654,.T.);
#545=FILL_AREA_STYLE('',(#655));
#546=EDGE_CURVE('',#630,#647,#656,.T.);
#547=EDGE_CURVE('',#650,#634,#657,.T.);
#548=FILL_AREA_STYLE('',(#658));
#549=EDGE_CURVE('',#659,#660,#661,.T.);
#550=EDGE_CURVE('',#662,#659,#663,.T.);
#551=EDGE_CURVE('',#664,#662,#665,.T.);
#552=EDGE_CURVE('',#660,#664,#666,.T.);
#553=FILL_AREA_STYLE('',(#667));
#554=EDGE_CURVE('',#660,#638,#668,.T.);
#555=EDGE_CURVE('',#641,#664,#669,.T.);
#556=FILL_AREA_STYLE('',(#670));
#557=EDGE_CURVE('',#671,#662,#672,.T.);
#558=EDGE_CURVE('',#671,#673,#674,.T.);
#559=EDGE_CURVE('',#675,#673,#676,.T.);
#560=EDGE_CURVE('',#677,#675,#678,.T.);
#561=EDGE_CURVE('',#643,#677,#679,.T.);
#562=FILL_AREA_STYLE('',(#680));
#563=EDGE_CURVE('',#681,#648,#682,.T.);
#564=EDGE_CURVE('',#683,#681,#684,.T.);
#565=EDGE_CURVE('',#685,#683,#686,.T.);
#566=EDGE_CURVE('',#687,#685,#688,.T.);
#567=EDGE_CURVE('',#629,#687,#689,.T.);
#568=FILL_AREA_STYLE('',(#690));
#569=EDGE_CURVE('',#659,#691,#692,.T.);
#570=EDGE_CURVE('',#691,#681,#693,.T.);
#571=EDGE_CURVE('',#694,#652,#695,.T.);
#572=EDGE_CURVE('',#696,#694,#697,.T.);
#573=EDGE_CURVE('',#698,#696,#699,.T.);
#574=EDGE_CURVE('',#671,#698,#700,.T.);
#575=FILL_AREA_STYLE('',(#701));
#576=EDGE_CURVE('',#702,#677,#703,.T.);
#577=EDGE_CURVE('',#704,#702,#705,.T.);
#578=EDGE_CURVE('',#706,#704,#707,.T.);
#579=EDGE_CURVE('',#632,#706,#708,.T.);
#580=EDGE_CURVE('',#687,#709,#710,.T.);
#581=EDGE_CURVE('',#709,#639,#711,.T.);
#582=FILL_AREA_STYLE('',(#712));
#583=EDGE_CURVE('',#685,#713,#714,.T.);
#584=EDGE_CURVE('',#713,#709,#715,.T.);
#585=FILL_AREA_STYLE('',(#716));
#586=EDGE_CURVE('',#717,#713,#718,.T.);
#587=EDGE_CURVE('',#691,#717,#719,.T.);
#588=FILL_AREA_STYLE('',(#720));
#589=EDGE_CURVE('',#683,#717,#721,.T.);
#590=FILL_AREA_STYLE('',(#722));
#591=FILL_AREA_STYLE('',(#723));
#592=EDGE_CURVE('',#724,#725,#726,.T.);
#593=EDGE_CURVE('',#724,#727,#728,.T.);
#594=EDGE_CURVE('',#729,#727,#730,.T.);
#595=EDGE_CURVE('',#731,#729,#732,.T.);
#596=EDGE_CURVE('',#733,#731,#734,.T.);
#597=EDGE_CURVE('',#725,#733,#735,.T.);
#598=FILL_AREA_STYLE('',(#736));
#599=EDGE_CURVE('',#725,#737,#738,.T.);
#600=EDGE_CURVE('',#696,#737,#739,.T.);
#601=EDGE_CURVE('',#694,#724,#740,.T.);
#602=FILL_AREA_STYLE('',(#741));
#603=EDGE_CURVE('',#742,#733,#743,.T.);
#604=EDGE_CURVE('',#744,#742,#745,.T.);
#605=EDGE_CURVE('',#746,#744,#747,.T.);
#606=EDGE_CURVE('',#746,#737,#748,.T.);
#607=FILL_AREA_STYLE('',(#749));
#608=EDGE_CURVE('',#731,#750,#751,.T.);
#609=EDGE_CURVE('',#750,#742,#752,.T.);
#610=FILL_AREA_STYLE('',(#753));
#611=EDGE_CURVE('',#698,#746,#754,.T.);
#612=FILL_AREA_STYLE('',(#755));
#613=EDGE_CURVE('',#744,#673,#756,.T.);
#614=FILL_AREA_STYLE('',(#757));
#615=EDGE_CURVE('',#758,#750,#759,.T.);
#616=EDGE_CURVE('',#675,#758,#760,.T.);
#617=FILL_AREA_STYLE('',(#761));
#618=EDGE_CURVE('',#758,#762,#763,.T.);
#619=EDGE_CURVE('',#702,#762,#764,.T.);
#620=FILL_AREA_STYLE('',(#765));
#621=EDGE_CURVE('',#766,#729,#767,.T.);
#622=EDGE_CURVE('',#766,#762,#768,.T.);
#623=FILL_AREA_STYLE('',(#769));
#624=EDGE_CURVE('',#706,#727,#770,.T.);
#625=EDGE_CURVE('',#704,#766,#771,.T.);
#626=FILL_AREA_STYLE('',(#772));
#627=FILL_AREA_STYLE('',(#773));
#628=FILL_AREA_STYLE_COLOUR('',#774);
#629=VERTEX_POINT('',#775);
#630=VERTEX_POINT('',#776);
#631=LINE('',#777,#778);
#632=VERTEX_POINT('',#779);
#633=LINE('',#780,#781);
#634=VERTEX_POINT('',#782);
#635=LINE('',#783,#784);
#636=LINE('',#785,#786);
#637=FILL_AREA_STYLE_COLOUR('',#787);
#638=VERTEX_POINT('',#788);
#639=VERTEX_POINT('',#789);
#640=LINE('',#790,#791);
#641=VERTEX_POINT('',#792);
#642=LINE('',#793,#794);
#643=VERTEX_POINT('',#795);
#644=LINE('',#796,#797);
#645=LINE('',#798,#799);
#646=FILL_AREA_STYLE_COLOUR('',#800);
#647=VERTEX_POINT('',#801);
#648=VERTEX_POINT('',#802);
#649=LINE('',#803,#804);
#650=VERTEX_POINT('',#805);
#651=LINE('',#806,#807);
#652=VERTEX_POINT('',#808);
#653=LINE('',#809,#810);
#654=LINE('',#811,#812);
#655=FILL_AREA_STYLE_COLOUR('',#813);
#656=LINE('',#814,#815);
#657=LINE('',#816,#817);
#658=FILL_AREA_STYLE_COLOUR('',#818);
#659=VERTEX_POINT('',#819);
#660=VERTEX_POINT('',#820);
#661=LINE('',#821,#822);
#662=VERTEX_POINT('',#823);
#663=LINE('',#824,#825);
#664=VERTEX_POINT('',#826);
#665=LINE('',#827,#828);
#666=LINE('',#829,#830);
#667=FILL_AREA_STYLE_COLOUR('',#831);
#668=LINE('',#832,#833);
#669=LINE('',#834,#835);
#670=FILL_AREA_STYLE_COLOUR('',#836);
#671=VERTEX_POINT('',#837);
#672=LINE('',#838,#839);
#673=VERTEX_POINT('',#840);
#674=LINE('',#841,#842);
#675=VERTEX_POINT('',#843);
#676=LINE('',#844,#845);
#677=VERTEX_POINT('',#846);
#678=LINE('',#847,#848);
#679=LINE('',#849,#850);
#680=FILL_AREA_STYLE_COLOUR('',#851);
#681=VERTEX_POINT('',#852);
#682=LINE('',#853,#854);
#683=VERTEX_POINT('',#855);
#684=LINE('',#856,#857);
#685=VERTEX_POINT('',#858);
#686=LINE('',#859,#860);
#687=VERTEX_POINT('',#861);
#688=LINE('',#862,#863);
#689=LINE('',#864,#865);
#690=FILL_AREA_STYLE_COLOUR('',#866);
#691=VERTEX_POINT('',#867);
#692=LINE('',#868,#869);
#693=LINE('',#870,#871);
#694=VERTEX_POINT('',#872);
#695=LINE('',#873,#874);
#696=VERTEX_POINT('',#875);
#697=CIRCLE('',#876,0.5);
#698=VERTEX_POINT('',#877);
#699=LINE('',#878,#879);
#700=CIRCLE('',#880,0.5);
#701=FILL_AREA_STYLE_COLOUR('',#881);
#702=VERTEX_POINT('',#882);
#703=CIRCLE('',#883,0.5);
#704=VERTEX_POINT('',#884);
#705=LINE('',#885,#886);
#706=VERTEX_POINT('',#887);
#707=CIRCLE('',#888,0.5);
#708=LINE('',#889,#890);
#709=VERTEX_POINT('',#891);
#710=LINE('',#892,#893);
#711=LINE('',#894,#895);
#712=FILL_AREA_STYLE_COLOUR('',#896);
#713=VERTEX_POINT('',#897);
#714=LINE('',#898,#899);
#715=LINE('',#900,#901);
#716=FILL_AREA_STYLE_COLOUR('',#902);
#717=VERTEX_POINT('',#903);
#718=LINE('',#904,#905);
#719=LINE('',#906,#907);
#720=FILL_AREA_STYLE_COLOUR('',#908);
#721=LINE('',#909,#910);
#722=FILL_AREA_STYLE_COLOUR('',#911);
#723=FILL_AREA_STYLE_COLOUR('',#912);
#724=VERTEX_POINT('',#913);
#725=VERTEX_POINT('',#914);
#726=B_SPLINE_CURVE_WITH_KNOTS('',3,(#915,#916,#917,#918,#919,#920,#921,#922,#923,#924,#925,#926),.UNSPECIFIED.,.F.,.F.,(4,2,2,2,2,4),(0.0,0.00143205386920084,0.253288814328706,0.379217194558458,0.505145574788211,0.590606287828163),.UNSPECIFIED.);
#727=VERTEX_POINT('',#927);
#728=LINE('',#928,#929);
#729=VERTEX_POINT('',#930);
#730=B_SPLINE_CURVE_WITH_KNOTS('',3,(#931,#932,#933,#934,#935,#936,#937,#938,#939,#940,#941,#942),.UNSPECIFIED.,.F.,.F.,(4,2,2,2,2,4),(1.06021449571351,1.14567520875347,1.27160358898338,1.39753196921329,1.6493887296731,1.65082078354217),.UNSPECIFIED.);
#731=VERTEX_POINT('',#943);
#732=ELLIPSE('',#944,0.282842712474619,0.2);
#733=VERTEX_POINT('',#945);
#734=LINE('',#946,#947);
#735=ELLIPSE('',#948,0.282842712474619,0.2);
#736=FILL_AREA_STYLE_COLOUR('',#949);
#737=VERTEX_POINT('',#950);
#738=B_SPLINE_CURVE_WITH_KNOTS('',3,(#951,#952,#953,#954,#955,#956,#957,#958,#959,#960,#961,#962),.UNSPECIFIED.,.F.,.F.,(4,2,2,2,2,4),(1.06021449571425,1.1456752087542,1.27160358898435,1.39753196921449,1.64938872967478,1.65082078354364),.UNSPECIFIED.);
#739=LINE('',#963,#964);
#740=LINE('',#965,#966);
#741=FILL_AREA_STYLE_COLOUR('',#967);
#742=VERTEX_POINT('',#968);
#743=LINE('',#969,#970);
#744=VERTEX_POINT('',#971);
#745=ELLIPSE('',#972,0.282842712474619,0.2);
#746=VERTEX_POINT('',#973);
#747=B_SPLINE_CURVE_WITH_KNOTS('',3,(#974,#975,#976,#977,#978,#979,#980,#981,#982,#983,#984,#985),.UNSPECIFIED.,.F.,.F.,(4,2,2,2,2,4),(0.0,0.00143205386899605,0.25328881432897,0.379217194558958,0.505145574788945,0.590606287828898),.UNSPECIFIED.);
#748=LINE('',#986,#987);
#749=FILL_AREA_STYLE_COLOUR('',#988);
#750=VERTEX_POINT('',#989);
#751=LINE('',#990,#991);
#752=LINE('',#992,#993);
#753=FILL_AREA_STYLE_COLOUR('',#994);
#754=LINE('',#995,#996);
#755=FILL_AREA_STYLE_COLOUR('',#997);
#756=B_SPLINE_CURVE_WITH_KNOTS('',3,(#998,#999,#1000,#1001,#1002,#1003,#1004,#1005,#1006,#1007,#1008,#1009),.UNSPECIFIED.,.F.,.F.,(4,2,2,2,2,4),(1.0602144957145,1.14567520875445,1.27160358898467,1.39753196921489,1.64938872967534,1.65082078354413),.UNSPECIFIED.);
#757=FILL_AREA_STYLE_COLOUR('',#1010);
#758=VERTEX_POINT('',#1011);
#759=ELLIPSE('',#1012,0.282842712474619,0.2);
#760=B_SPLINE_CURVE_WITH_KNOTS('',3,(#1013,#1014,#1015,#1016,#1017,#1018,#1019,#1020,#1021,#1022,#1023,#1024),.UNSPECIFIED.,.F.,.F.,(4,2,2,2,2,4),(0.0,0.00143205386892814,0.253288814329059,0.379217194559125,0.505145574789191,0.590606287829143),.UNSPECIFIED.);
#761=FILL_AREA_STYLE_COLOUR('',#1025);
#762=VERTEX_POINT('',#1026);
#763=B_SPLINE_CURVE_WITH_KNOTS('',3,(#1027,#1028,#1029,#1030,#1031,#1032,#1033,#1034,#1035,#1036,#1037,#1038),.UNSPECIFIED.,.F.,.F.,(4,2,2,2,2,4),(1.06021449571376,1.14567520875371,1.2716035889837,1.39753196921369,1.64938872967366,1.65082078354266),.UNSPECIFIED.);
#764=LINE('',#1039,#1040);
#765=FILL_AREA_STYLE_COLOUR('',#1041);
#766=VERTEX_POINT('',#1042);
#767=B_SPLINE_CURVE_WITH_KNOTS('',3,(#1043,#1044,#1045,#1046,#1047,#1048,#1049,#1050,#1051,#1052,#1053,#1054),.UNSPECIFIED.,.F.,.F.,(4,2,2,2,2,4),(0.0,0.0014320538689964,0.253288814328971,0.379217194558959,0.505145574788946,0.590606287828899),.UNSPECIFIED.);
#768=LINE('',#1055,#1056);
#769=FILL_AREA_STYLE_COLOUR('',#1057);
#770=LINE('',#1058,#1059);
#771=LINE('',#1060,#1061);
#772=FILL_AREA_STYLE_COLOUR('',#1062);
#773=FILL_AREA_STYLE_COLOUR('',#1063);
#774=COLOUR_RGB('',0.121568627655506,0.121568627655506,0.121568627655506);
#775=CARTESIAN_POINT('',(0.9,-1.66533453693773E-016,1.25));
#776=CARTESIAN_POINT('',(0.9,2.0,1.25));
#777=CARTESIAN_POINT('',(0.9,0.7,1.25));
#778=VECTOR('',#1064,1.0);
#779=CARTESIAN_POINT('',(0.9,-2.44921270764475E-016,2.0));
#780=CARTESIAN_POINT('',(0.9,-1.11022302462516E-016,-1.26329881885295E-016));
#781=VECTOR('',#1065,1.0);
#782=CARTESIAN_POINT('',(0.9,2.0,2.0));
#783=CARTESIAN_POINT('',(0.9,0.25,2.0));
#784=VECTOR('',#1066,1.0);
#785=CARTESIAN_POINT('',(0.9,2.0,0.0));
#786=VECTOR('',#1067,1.0);
#787=COLOUR_RGB('',0.121568627655506,0.121568627655506,0.121568627655506);
#788=CARTESIAN_POINT('',(0.9,2.0,-1.25));
#789=CARTESIAN_POINT('',(0.9,-5.55111512312578E-017,-1.25));
#790=CARTESIAN_POINT('',(0.9,0.7,-1.25));
#791=VECTOR('',#1068,1.0);
#792=CARTESIAN_POINT('',(0.9,2.0,-2.0));
#793=CARTESIAN_POINT('',(0.9,2.0,0.0));
#794=VECTOR('',#1069,1.0);
#795=CARTESIAN_POINT('',(0.9,0.0,-2.0));
#796=CARTESIAN_POINT('',(0.9,0.25,-2.0));
#797=VECTOR('',#1070,1.0);
#798=CARTESIAN_POINT('',(0.9,-1.11022302462516E-016,-1.26329881885295E-016));
#799=VECTOR('',#1071,1.0);
#800=COLOUR_RGB('',0.121568627655506,0.121568627655506,0.121568627655506);
#801=CARTESIAN_POINT('',(-0.9,2.0,1.25));
#802=CARTESIAN_POINT('',(-0.9,-1.66533453693773E-016,1.25));
#803=CARTESIAN_POINT('',(-0.9,0.7,1.25));
#804=VECTOR('',#1072,1.0);
#805=CARTESIAN_POINT('',(-0.9,2.0,2.0));
#806=CARTESIAN_POINT('',(-0.9,2.0,0.0));
#807=VECTOR('',#1073,1.0);
#808=CARTESIAN_POINT('',(-0.9,-2.44921270764475E-016,2.0));
#809=CARTESIAN_POINT('',(-0.9,0.25,2.0));
#810=VECTOR('',#1074,1.0);
#811=CARTESIAN_POINT('',(-0.9,-1.11022302462516E-016,-1.26329881885295E-016));
#812=VECTOR('',#1075,1.0);
#813=COLOUR_RGB('',0.121568627655506,0.121568627655506,0.121568627655506);
#814=CARTESIAN_POINT('',(0.0,2.0,1.25));
#815=VECTOR('',#1076,1.0);
#816=CARTESIAN_POINT('',(0.0,2.0,2.0));
#817=VECTOR('',#1077,1.0);
#818=COLOUR_RGB('',0.121568627655506,0.121568627655506,0.121568627655506);
#819=CARTESIAN_POINT('',(-0.9,-5.55111512312578E-017,-1.25));
#820=CARTESIAN_POINT('',(-0.9,2.0,-1.25));
#821=CARTESIAN_POINT('',(-0.9,0.7,-1.25));
#822=VECTOR('',#1078,1.0);
#823=CARTESIAN_POINT('',(-0.9,0.0,-2.0));
#824=CARTESIAN_POINT('',(-0.9,-1.11022302462516E-016,-1.26329881885295E-016));
#825=VECTOR('',#1079,1.0);
#826=CARTESIAN_POINT('',(-0.9,2.0,-2.0));
#827=CARTESIAN_POINT('',(-0.9,0.25,-2.0));
#828=VECTOR('',#1080,1.0);
#829=CARTESIAN_POINT('',(-0.9,2.0,0.0));
#830=VECTOR('',#1081,1.0);
#831=COLOUR_RGB('',0.121568627655506,0.121568627655506,0.121568627655506);
#832=CARTESIAN_POINT('',(0.0,2.0,-1.25));
#833=VECTOR('',#1082,1.0);
#834=CARTESIAN_POINT('',(0.0,2.0,-2.0));
#835=VECTOR('',#1083,1.0);
#836=COLOUR_RGB('',0.121568627655506,0.121568627655506,0.121568627655506);
#837=CARTESIAN_POINT('',(-1.5,0.0,-2.0));
#838=CARTESIAN_POINT('',(-1.5,0.0,-2.0));
#839=VECTOR('',#1084,1.0);
#840=CARTESIAN_POINT('',(-1.5,5.3,-2.0));
#841=CARTESIAN_POINT('',(-1.5,0.0,-2.0));
#842=VECTOR('',#1085,1.0);
#843=CARTESIAN_POINT('',(1.5,5.3,-2.0));
#844=CARTESIAN_POINT('',(1.22460635382238E-017,5.3,-2.0));
#845=VECTOR('',#1086,1.0);
#846=CARTESIAN_POINT('',(1.5,0.0,-2.0));
#847=CARTESIAN_POINT('',(1.5,0.0,-2.0));
#848=VECTOR('',#1087,1.0);
#849=CARTESIAN_POINT('',(-1.5,0.0,-2.0));
#850=VECTOR('',#1088,1.0);
#851=COLOUR_RGB('',0.121568627655506,0.121568627655506,0.121568627655506);
#852=CARTESIAN_POINT('',(-1.25,-2.22044604925031E-016,1.25));
#853=CARTESIAN_POINT('',(0.0,-1.66533453693773E-016,1.25));
#854=VECTOR('',#1089,1.0);
#855=CARTESIAN_POINT('',(-1.25,2.8,1.25));
#856=CARTESIAN_POINT('',(-1.25,0.9,1.25));
#857=VECTOR('',#1090,1.0);
#858=CARTESIAN_POINT('',(1.25,2.8,1.25));
#859=CARTESIAN_POINT('',(0.0,2.8,1.25));
#860=VECTOR('',#1091,1.0);
#861=CARTESIAN_POINT('',(1.25,-2.22044604925031E-016,1.25));
#862=CARTESIAN_POINT('',(1.25,0.9,1.25));
#863=VECTOR('',#1092,1.0);
#864=CARTESIAN_POINT('',(0.0,-1.66533453693773E-016,1.25));
#865=VECTOR('',#1093,1.0);
#866=COLOUR_RGB('',0.121568627655506,0.121568627655506,0.121568627655506);
#867=CARTESIAN_POINT('',(-1.25,0.0,-1.25));
#868=CARTESIAN_POINT('',(0.0,-5.55111512312578E-017,-1.25));
#869=VECTOR('',#1094,1.0);
#870=CARTESIAN_POINT('',(-1.25,-1.11022302462516E-016,-1.38575945423519E-016));
#871=VECTOR('',#1095,1.0);
#872=CARTESIAN_POINT('',(-1.5,-2.44921270764475E-016,2.0));
#873=CARTESIAN_POINT('',(-1.5,-2.44921270764475E-016,2.0));
#874=VECTOR('',#1096,1.0);
#875=CARTESIAN_POINT('',(-2.0,-2.14306111918916E-016,1.5));
#876=AXIS2_PLACEMENT_3D('',#1097,#1098,#1099);
#877=CARTESIAN_POINT('',(-2.0,-3.06151588455594E-017,-1.5));
#878=CARTESIAN_POINT('',(-2.0,-3.06151588455594E-017,-1.5));
#879=VECTOR('',#1100,1.0);
#880=AXIS2_PLACEMENT_3D('',#1101,#1102,#1103);
#881=COLOUR_RGB('',0.121568627655506,0.121568627655506,0.121568627655506);
#882=CARTESIAN_POINT('',(2.0,-3.06151588455594E-017,-1.5));
#883=AXIS2_PLACEMENT_3D('',#1104,#1105,#1106);
#884=CARTESIAN_POINT('',(2.0,-2.14306111918916E-016,1.5));
#885=CARTESIAN_POINT('',(2.0,-2.14306111918916E-016,1.5));
#886=VECTOR('',#1107,1.0);
#887=CARTESIAN_POINT('',(1.5,-2.44921270764475E-016,2.0));
#888=AXIS2_PLACEMENT_3D('',#1108,#1109,#1110);
#889=CARTESIAN_POINT('',(-1.5,-2.44921270764475E-016,2.0));
#890=VECTOR('',#1111,1.0);
#891=CARTESIAN_POINT('',(1.25,0.0,-1.25));
#892=CARTESIAN_POINT('',(1.25,-1.11022302462516E-016,-1.38575945423519E-016));
#893=VECTOR('',#1112,1.0);
#894=CARTESIAN_POINT('',(0.0,-5.55111512312578E-017,-1.25));
#895=VECTOR('',#1113,1.0);
#896=COLOUR_RGB('',0.121568627655506,0.121568627655506,0.121568627655506);
#897=CARTESIAN_POINT('',(1.25,2.8,-1.25));
#898=CARTESIAN_POINT('',(1.25,2.8,0.0));
#899=VECTOR('',#1114,1.0);
#900=CARTESIAN_POINT('',(1.25,0.9,-1.25));
#901=VECTOR('',#1115,1.0);
#902=COLOUR_RGB('',0.121568627655506,0.121568627655506,0.121568627655506);
#903=CARTESIAN_POINT('',(-1.25,2.8,-1.25));
#904=CARTESIAN_POINT('',(0.0,2.8,-1.25));
#905=VECTOR('',#1116,1.0);
#906=CARTESIAN_POINT('',(-1.25,0.9,-1.25));
#907=VECTOR('',#1117,1.0);
#908=COLOUR_RGB('',0.121568627655506,0.121568627655506,0.121568627655506);
#909=CARTESIAN_POINT('',(-1.25,2.8,0.0));
#910=VECTOR('',#1118,1.0);
#911=COLOUR_RGB('',0.121568627655506,0.121568627655506,0.121568627655506);
#912=COLOUR_RGB('',0.121568627655506,0.121568627655506,0.121568627655506);
#913=CARTESIAN_POINT('',(-1.5,5.3,2.0));
#914=CARTESIAN_POINT('',(-1.85355339059327,5.49269674194434,1.85355339059327));
#915=CARTESIAN_POINT('',(-1.5,5.3,2.0));
#916=CARTESIAN_POINT('',(-1.50040343547352,5.30025515499705,2.0));
#917=CARTESIAN_POINT('',(-1.50088755778249,5.30056134076553,1.99999937500163));
#918=CARTESIAN_POINT('',(-1.57224350403735,5.34569063449072,1.99981513437212));
#919=CARTESIAN_POINT('',(-1.64785997018145,5.39375749262555,1.98381542031012));
#920=CARTESIAN_POINT('',(-1.75198575091936,5.45100219273146,1.93357651101642));
#921=CARTESIAN_POINT('',(-1.78512587646309,5.46759141924228,1.91264082096125));
#922=CARTESIAN_POINT('',(-1.84654521046315,5.49198078141202,1.86259568355942));
#923=CARTESIAN_POINT('',(-1.87481432395405,5.5,1.8335809013946));
#924=CARTESIAN_POINT('',(-1.91709214260799,5.5,1.77721047652268));
#925=CARTESIAN_POINT('',(-1.93332892651371,5.49582341449698,1.7510574476469));
#926=CARTESIAN_POINT('',(-1.94613013009434,5.4857108794013,1.72576072958335));
#927=CARTESIAN_POINT('',(1.5,5.3,2.0));
#928=CARTESIAN_POINT('',(-3.67381906146714E-017,5.3,2.0));
#929=VECTOR('',#1119,1.0);
#930=CARTESIAN_POINT('',(1.85355339059327,5.49269674194434,1.85355339059327));
#931=CARTESIAN_POINT('',(1.94613013009434,5.4857108794013,1.72576072958335));
#932=CARTESIAN_POINT('',(1.93332892651371,5.49582341449698,1.7510574476469));
#933=CARTESIAN_POINT('',(1.91709214260799,5.5,1.77721047652268));
#934=CARTESIAN_POINT('',(1.87481432395402,5.5,1.83358090139464));
#935=CARTESIAN_POINT('',(1.84654521046314,5.49198078141201,1.86259568355942));
#936=CARTESIAN_POINT('',(1.78512587646316,5.46759141924231,1.9126408209612));
#937=CARTESIAN_POINT('',(1.7519857509195,5.45100219273154,1.93357651101634));
#938=CARTESIAN_POINT('',(1.64785997018169,5.39375749262569,1.98381542031004));
#939=CARTESIAN_POINT('',(1.57224350403997,5.34569063448651,1.99981513437213));
#940=CARTESIAN_POINT('',(1.50088755778234,5.30056134076558,1.99999937500163));
#941=CARTESIAN_POINT('',(1.50040343547348,5.30025515499702,2.0));
#942=CARTESIAN_POINT('',(1.5,5.3,2.0));
#943=CARTESIAN_POINT('',(1.8,5.5,1.8));
#944=AXIS2_PLACEMENT_3D('',#1120,#1121,#1122);
#945=CARTESIAN_POINT('',(-1.8,5.5,1.8));
#946=CARTESIAN_POINT('',(0.0,5.5,1.8));
#947=VECTOR('',#1123,1.0);
#948=AXIS2_PLACEMENT_3D('',#1124,#1125,#1126);
#949=COLOUR_RGB('',0.121568627655506,0.121568627655506,0.121568627655506);
#950=CARTESIAN_POINT('',(-2.0,5.3,1.5));
#951=CARTESIAN_POINT('',(-1.72576072958335,5.4857108794013,1.94613013009434));
#952=CARTESIAN_POINT('',(-1.7510574476469,5.49582341449698,1.93332892651371));
#953=CARTESIAN_POINT('',(-1.77721047652268,5.5,1.91709214260799));
#954=CARTESIAN_POINT('',(-1.83358090139471,5.5,1.87481432395397));
#955=CARTESIAN_POINT('',(-1.86259568355943,5.491980781412,1.84654521046312));
#956=CARTESIAN_POINT('',(-1.91264082096111,5.46759141924236,1.78512587646327));
#957=CARTESIAN_POINT('',(-1.93357651101621,5.45100219273165,1.7519857509197));
#958=CARTESIAN_POINT('',(-1.98381542030992,5.39375749262589,1.64785997018205));
#959=CARTESIAN_POINT('',(-1.99981513437216,5.34569063448018,1.5722435040439));
#960=CARTESIAN_POINT('',(-1.99999937500163,5.30056134076565,1.50088755778211));
#961=CARTESIAN_POINT('',(-2.0,5.30025515499698,1.50040343547342));
#962=CARTESIAN_POINT('',(-2.0,5.3,1.5));
#963=CARTESIAN_POINT('',(-2.0,-2.14306111918916E-016,1.5));
#964=VECTOR('',#1127,1.0);
#965=CARTESIAN_POINT('',(-1.5,-2.44921270764475E-016,2.0));
#966=VECTOR('',#1128,1.0);
#967=COLOUR_RGB('',0.121568627655506,0.121568627655506,0.121568627655506);
#968=CARTESIAN_POINT('',(-1.8,5.5,-1.8));
#969=CARTESIAN_POINT('',(-1.8,5.5,0.1));
#970=VECTOR('',#1129,1.0);
#971=CARTESIAN_POINT('',(-1.85355339059327,5.49269674194434,-1.85355339059327));
#972=AXIS2_PLACEMENT_3D('',#1130,#1131,#1132);
#973=CARTESIAN_POINT('',(-2.0,5.3,-1.5));
#974=CARTESIAN_POINT('',(-2.0,5.3,-1.5));
#975=CARTESIAN_POINT('',(-2.0,5.30025515499701,-1.50040343547346));
#976=CARTESIAN_POINT('',(-1.99999937500163,5.30056134076561,-1.50088755778226));
#977=CARTESIAN_POINT('',(-1.99981513437214,5.3456906344844,-1.57224350404128));
#978=CARTESIAN_POINT('',(-1.98381542031,5.39375749262576,-1.64785997018181));
#979=CARTESIAN_POINT('',(-1.9335765110163,5.45100219273157,-1.75198575091957));
#980=CARTESIAN_POINT('',(-1.91264082096117,5.46759141924233,-1.7851258764632));
#981=CARTESIAN_POINT('',(-1.86259568355943,5.49198078141201,-1.84654521046313));
#982=CARTESIAN_POINT('',(-1.83358090139466,5.5,-1.874814323954));
#983=CARTESIAN_POINT('',(-1.77721047652268,5.5,-1.91709214260799));
#984=CARTESIAN_POINT('',(-1.7510574476469,5.49582341449698,-1.93332892651371));
#985=CARTESIAN_POINT('',(-1.72576072958335,5.4857108794013,-1.94613013009434));
#986=CARTESIAN_POINT('',(-2.0,5.3,-2.44921270764476E-017));
#987=VECTOR('',#1133,1.0);
#988=COLOUR_RGB('',0.121568627655506,0.121568627655506,0.121568627655506);
#989=CARTESIAN_POINT('',(1.8,5.5,-1.8));
#990=CARTESIAN_POINT('',(1.8,5.5,4.44089209850063E-016));
#991=VECTOR('',#1134,1.0);
#992=CARTESIAN_POINT('',(-0.0999999999999996,5.5,-1.8));
#993=VECTOR('',#1135,1.0);
#994=COLOUR_RGB('',0.121568627655506,0.121568627655506,0.121568627655506);
#995=CARTESIAN_POINT('',(-2.0,-3.06151588455594E-017,-1.5));
#996=VECTOR('',#1136,1.0);
#997=COLOUR_RGB('',0.121568627655506,0.121568627655506,0.121568627655506);
#998=CARTESIAN_POINT('',(-1.94613013009434,5.4857108794013,-1.72576072958335));
#999=CARTESIAN_POINT('',(-1.93332892651371,5.49582341449698,-1.7510574476469));
#1000=CARTESIAN_POINT('',(-1.91709214260799,5.5,-1.77721047652268));
#1001=CARTESIAN_POINT('',(-1.87481432395396,5.5,-1.83358090139473));
#1002=CARTESIAN_POINT('',(-1.84654521046311,5.491980781412,-1.86259568355943));
#1003=CARTESIAN_POINT('',(-1.78512587646331,5.46759141924238,-1.91264082096108));
#1004=CARTESIAN_POINT('',(-1.75198575091977,5.45100219273168,-1.93357651101617));
#1005=CARTESIAN_POINT('',(-1.64785997018216,5.39375749262596,-1.98381542030988));
#1006=CARTESIAN_POINT('',(-1.5722435040452,5.34569063447807,-1.99981513437217));
#1007=CARTESIAN_POINT('',(-1.50088755778204,5.30056134076568,-1.99999937500163));
#1008=CARTESIAN_POINT('',(-1.5004034354734,5.30025515499697,-2.0));
#1009=CARTESIAN_POINT('',(-1.5,5.3,-2.0));
#1010=COLOUR_RGB('',0.121568627655506,0.121568627655506,0.121568627655506);
#1011=CARTESIAN_POINT('',(1.85355339059327,5.49269674194434,-1.85355339059327));
#1012=AXIS2_PLACEMENT_3D('',#1137,#1138,#1139);
#1013=CARTESIAN_POINT('',(1.5,5.3,-2.0));
#1014=CARTESIAN_POINT('',(1.50040343547344,5.300255154997,-2.0));
#1015=CARTESIAN_POINT('',(1.50088755778219,5.30056134076563,-1.99999937500163));
#1016=CARTESIAN_POINT('',(1.57224350404259,5.34569063448229,-1.99981513437215));
#1017=CARTESIAN_POINT('',(1.64785997018193,5.39375749262583,-1.98381542030996));
#1018=CARTESIAN_POINT('',(1.75198575091964,5.45100219273161,-1.93357651101626));
#1019=CARTESIAN_POINT('',(1.78512587646324,5.46759141924235,-1.91264082096114));
#1020=CARTESIAN_POINT('',(1.84654521046313,5.49198078141201,-1.86259568355943));
#1021=CARTESIAN_POINT('',(1.87481432395399,5.5,-1.83358090139468));
#1022=CARTESIAN_POINT('',(1.91709214260799,5.5,-1.77721047652268));
#1023=CARTESIAN_POINT('',(1.93332892651371,5.49582341449698,-1.7510574476469));
#1024=CARTESIAN_POINT('',(1.94613013009434,5.4857108794013,-1.72576072958335));
#1025=COLOUR_RGB('',0.121568627655506,0.121568627655506,0.121568627655506);
#1026=CARTESIAN_POINT('',(2.0,5.3,-1.5));
#1027=CARTESIAN_POINT('',(1.72576072958335,5.4857108794013,-1.94613013009434));
#1028=CARTESIAN_POINT('',(1.7510574476469,5.49582341449698,-1.93332892651371));
#1029=CARTESIAN_POINT('',(1.77721047652268,5.5,-1.91709214260799));
#1030=CARTESIAN_POINT('',(1.83358090139466,5.5,-1.874814323954));
#1031=CARTESIAN_POINT('',(1.86259568355943,5.49198078141201,-1.84654521046313));
#1032=CARTESIAN_POINT('',(1.91264082096117,5.46759141924233,-1.7851258764632));
#1033=CARTESIAN_POINT('',(1.9335765110163,5.45100219273157,-1.75198575091957));
#1034=CARTESIAN_POINT('',(1.98381542031,5.39375749262576,-1.64785997018181));
#1035=CARTESIAN_POINT('',(1.99981513437214,5.3456906344844,-1.57224350404128));
#1036=CARTESIAN_POINT('',(1.99999937500163,5.30056134076561,-1.50088755778226));
#1037=CARTESIAN_POINT('',(2.0,5.30025515499701,-1.50040343547346));
#1038=CARTESIAN_POINT('',(2.0,5.3,-1.5));
#1039=CARTESIAN_POINT('',(2.0,-3.06151588455594E-017,-1.5));
#1040=VECTOR('',#1140,1.0);
#1041=COLOUR_RGB('',0.121568627655506,0.121568627655506,0.121568627655506);
#1042=CARTESIAN_POINT('',(2.0,5.3,1.5));
#1043=CARTESIAN_POINT('',(2.0,5.3,1.5));
#1044=CARTESIAN_POINT('',(2.0,5.30025515499701,1.50040343547346));
#1045=CARTESIAN_POINT('',(1.99999937500163,5.30056134076561,1.50088755778226));
#1046=CARTESIAN_POINT('',(1.99981513437214,5.3456906344844,1.57224350404128));
#1047=CARTESIAN_POINT('',(1.98381542031,5.39375749262576,1.64785997018181));
#1048=CARTESIAN_POINT('',(1.9335765110163,5.45100219273157,1.75198575091957));
#1049=CARTESIAN_POINT('',(1.91264082096117,5.46759141924233,1.7851258764632));
#1050=CARTESIAN_POINT('',(1.86259568355943,5.49198078141201,1.84654521046313));
#1051=CARTESIAN_POINT('',(1.83358090139466,5.5,1.874814323954));
#1052=CARTESIAN_POINT('',(1.77721047652268,5.5,1.91709214260799));
#1053=CARTESIAN_POINT('',(1.7510574476469,5.49582341449698,1.93332892651371));
#1054=CARTESIAN_POINT('',(1.72576072958335,5.4857108794013,1.94613013009434));
#1055=CARTESIAN_POINT('',(2.0,5.3,0.0));
#1056=VECTOR('',#1141,1.0);
#1057=COLOUR_RGB('',0.121568627655506,0.121568627655506,0.121568627655506);
#1058=CARTESIAN_POINT('',(1.5,-2.44921270764475E-016,2.0));
#1059=VECTOR('',#1142,1.0);
#1060=CARTESIAN_POINT('',(2.0,-2.14306111918916E-016,1.5));
#1061=VECTOR('',#1143,1.0);
#1062=COLOUR_RGB('',0.121568627655506,0.121568627655506,0.121568627655506);
#1063=COLOUR_RGB('',0.121568627655506,0.121568627655506,0.121568627655506);
#1064=DIRECTION('',(0.0,1.0,-0.0));
#1065=DIRECTION('',(0.0,6.12303176911189E-017,-1.0));
#1066=DIRECTION('',(-0.0,-1.0,-6.12303176911189E-017));
#1067=DIRECTION('',(0.0,0.0,-1.0));
#1068=DIRECTION('',(0.0,-1.0,0.0));
#1069=DIRECTION('',(0.0,0.0,-1.0));
#1070=DIRECTION('',(0.0,1.0,6.12303176911189E-017));
#1071=DIRECTION('',(0.0,6.12303176911189E-017,-1.0));
#1072=DIRECTION('',(0.0,-1.0,0.0));
#1073=DIRECTION('',(0.0,0.0,-1.0));
#1074=DIRECTION('',(-0.0,1.0,6.12303176911189E-017));
#1075=DIRECTION('',(0.0,-6.12303176911189E-017,1.0));
#1076=DIRECTION('',(-1.0,0.0,0.0));
#1077=DIRECTION('',(1.0,0.0,0.0));
#1078=DIRECTION('',(0.0,1.0,0.0));
#1079=DIRECTION('',(0.0,-6.12303176911189E-017,1.0));
#1080=DIRECTION('',(0.0,-1.0,-6.12303176911189E-017));
#1081=DIRECTION('',(0.0,0.0,-1.0));
#1082=DIRECTION('',(1.0,0.0,-0.0));
#1083=DIRECTION('',(-1.0,-0.0,-0.0));
#1084=DIRECTION('',(1.0,0.0,0.0));
#1085=DIRECTION('',(0.0,1.0,6.12303176911189E-017));
#1086=DIRECTION('',(-1.0,0.0,-6.12303176911189E-017));
#1087=DIRECTION('',(0.0,1.0,6.12303176911189E-017));
#1088=DIRECTION('',(1.0,0.0,0.0));
#1089=DIRECTION('',(1.0,0.0,0.0));
#1090=DIRECTION('',(0.0,-1.0,0.0));
#1091=DIRECTION('',(-1.0,0.0,0.0));
#1092=DIRECTION('',(0.0,1.0,0.0));
#1093=DIRECTION('',(1.0,0.0,0.0));
#1094=DIRECTION('',(-1.0,0.0,0.0));
#1095=DIRECTION('',(0.0,-6.12303176911189E-017,1.0));
#1096=DIRECTION('',(1.0,0.0,0.0));
#1097=CARTESIAN_POINT('',(-1.5,-2.14306111918916E-016,1.5));
#1098=DIRECTION('',(-0.0,1.0,6.12303176911189E-017));
#1099=DIRECTION('',(1.0,0.0,0.0));
#1100=DIRECTION('',(6.12303176911189E-017,-6.12303176911189E-017,1.0));
#1101=CARTESIAN_POINT('',(-1.5,-3.06151588455594E-017,-1.5));
#1102=DIRECTION('',(-0.0,1.0,6.12303176911189E-017));
#1103=DIRECTION('',(1.0,0.0,0.0));
#1104=CARTESIAN_POINT('',(1.5,-3.06151588455594E-017,-1.5));
#1105=DIRECTION('',(-0.0,1.0,6.12303176911189E-017));
#1106=DIRECTION('',(1.0,0.0,0.0));
#1107=DIRECTION('',(0.0,6.12303176911189E-017,-1.0));
#1108=CARTESIAN_POINT('',(1.5,-2.14306111918916E-016,1.5));
#1109=DIRECTION('',(-0.0,1.0,6.12303176911189E-017));
#1110=DIRECTION('',(1.0,0.0,0.0));
#1111=DIRECTION('',(1.0,0.0,0.0));
#1112=DIRECTION('',(0.0,6.12303176911189E-017,-1.0));
#1113=DIRECTION('',(-1.0,0.0,0.0));
#1114=DIRECTION('',(0.0,0.0,-1.0));
#1115=DIRECTION('',(0.0,-1.0,0.0));
#1116=DIRECTION('',(1.0,0.0,0.0));
#1117=DIRECTION('',(0.0,1.0,0.0));
#1118=DIRECTION('',(0.0,0.0,-1.0));
#1119=DIRECTION('',(1.0,0.0,1.83690953073357E-016));
#1120=CARTESIAN_POINT('',(1.8,5.3,1.8));
#1121=DIRECTION('',(0.707106781186547,0.0,-0.707106781186548));
#1122=DIRECTION('',(0.707106781186548,0.0,0.707106781186547));
#1123=DIRECTION('',(1.0,0.0,1.83690953073357E-016));
#1124=CARTESIAN_POINT('',(-1.8,5.3,1.8));
#1125=DIRECTION('',(-0.707106781186548,0.0,-0.707106781186548));
#1126=DIRECTION('',(-0.707106781186547,0.0,0.707106781186547));
#1127=DIRECTION('',(0.0,1.0,6.12303176911189E-017));
#1128=DIRECTION('',(0.0,1.0,6.12303176911189E-017));
#1129=DIRECTION('',(-1.22460635382238E-016,0.0,1.0));
#1130=CARTESIAN_POINT('',(-1.8,5.3,-1.8));
#1131=DIRECTION('',(0.707106781186548,0.0,-0.707106781186547));
#1132=DIRECTION('',(-0.707106781186547,0.0,-0.707106781186548));
#1133=DIRECTION('',(-1.22460635382238E-016,0.0,1.0));
#1134=DIRECTION('',(0.0,0.0,-1.0));
#1135=DIRECTION('',(-1.0,0.0,-6.12303176911189E-017));
#1136=DIRECTION('',(0.0,1.0,6.12303176911189E-017));
#1137=CARTESIAN_POINT('',(1.8,5.3,-1.8));
#1138=DIRECTION('',(0.707106781186548,-0.0,0.707106781186547));
#1139=DIRECTION('',(0.707106781186547,0.0,-0.707106781186548));
#1140=DIRECTION('',(0.0,1.0,6.12303176911189E-017));
#1141=DIRECTION('',(0.0,0.0,-1.0));
#1142=DIRECTION('',(0.0,1.0,6.12303176911189E-017));
#1143=DIRECTION('',(0.0,1.0,6.12303176911189E-017));
ENDSEC;
END-ISO-10303-21;
